{
  "project_info": {
    "project_number": "1045079482099",
    "project_id": "notesapp-70c98",
    "storage_bucket": "notesapp-70c98.appspot.com"
  },
  "client": [
    {
      "client_info": {
        "mobilesdk_app_id": "1:1045079482099:android:2b60cec9b06ac4015ee186",
        "android_client_info": {
          "package_name": "com.example.noteappmvvm"
        }
      },
      "oauth_client": [
        {
          "client_id": "1045079482099-6mr9gfhvfi1631rrci4mdfmetd2jh02g.apps.googleusercontent.com",
          "client_type": 3
        }
      ],
      "api_key": [
        {
          "current_key": "AIzaSyAjKrCo89-OWY8NpaNA-ivbNQ_Wee9D1IY"
        }
      ],
      "services": {
        "appinvite_service": {
          "other_platform_oauth_client": [
            {
              "client_id": "1045079482099-6mr9gfhvfi1631rrci4mdfmetd2jh02g.apps.googleusercontent.com",
              "client_type": 3
            }
          ]
        }
      }
    }
  ],
  "configuration_version": "1"
}